\relax 
\select@language{english}
\@writefile{toc}{\select@language{english}}
\@writefile{lof}{\select@language{english}}
\@writefile{lot}{\select@language{english}}
\@writefile{toc}{\contentsline {section}{\numberline {1}Introduction}{4}}
\@writefile{toc}{\contentsline {section}{\numberline {2}Task}{4}}
\@writefile{toc}{\contentsline {section}{\numberline {3}Solution}{4}}
\@writefile{toc}{\contentsline {section}{\numberline {4}Testing}{5}}
\@writefile{toc}{\contentsline {subsection}{\numberline {4.1}exit}{5}}
\@writefile{toc}{\contentsline {subsection}{\numberline {4.2}cd}{5}}
\@writefile{toc}{\contentsline {subsection}{\numberline {4.3}checkEnv}{5}}
\@writefile{toc}{\contentsline {subsection}{\numberline {4.4}Foreground and Background processes}{6}}
\@writefile{toc}{\contentsline {subsection}{\numberline {4.5}Zombie processes}{7}}
\@writefile{toc}{\contentsline {subsubsection}{\numberline {4.5.1}Detection by signals}{7}}
\@writefile{toc}{\contentsline {subsubsection}{\numberline {4.5.2}Detection by polling}{7}}
\@writefile{toc}{\contentsline {section}{\numberline {5}Access to code}{7}}
\@writefile{toc}{\contentsline {subsection}{\numberline {5.1}Compilation}{7}}
\@writefile{toc}{\contentsline {section}{\numberline {6}Reflection}{8}}
\@writefile{toc}{\contentsline {section}{\numberline {7}Appendix}{8}}
